…
Summary of new cases during the past 24 hours by country and type (as of
2021-09-21):

``` r
library(tidyr)

coronavirus %>% 
  filter(date == max(date)) %>%
  select(country, type, cases) %>%
  group_by(country, type) %>%
  summarise(total_cases = sum(cases)) %>%
  pivot_wider(names_from = type,
              values_from = total_cases) %>%
  arrange(-confirmed)
#> # A tibble: 195 x 4
#> # Groups:   country [195]
#>    country            confirmed death recovered
#>    <chr>                  <int> <int>     <int>
#>  1 US                    120788  2331        NA
#>  2 Turkey                 58676   520        NA
#>  3 Russia                 37592  1594        NA
#>  4 United Kingdom         31188   204        NA
#>  5 India                  26964   383        NA
#>  6 Iran                   17564   379        NA
#>  7 Philippines            16300   140        NA
#>  8 Malaysia               15759   334        NA
#>  9 Mexico                 12521   815        NA
#> 10 Vietnam                11692   240        NA
#> 11 Thailand               10919   143        NA
#> 12 France                  8776   136        NA
#> 13 Cuba                    8289    63        NA
#> 14 Germany                 7277    71        NA
#> 15 Serbia                  7232    38        NA
#> 16 Israel                  7198    12        NA
#> 17 Romania                 6789   129        NA
#> 18 Ukraine                 5542   152        NA
#> 19 Kazakhstan              5456     0        NA
#> 20 Georgia                 4940    92        NA
#> 21 Guatemala               3718    54        NA
#> 22 Greece                  3688    43        NA
#> 23 Canada                  3685    52        NA
#> 24 Italy                   3374    67        NA
#> 25 Indonesia               3263   171        NA
#> 26 Azerbaijan              3188    52        NA
#> 27 Iraq                    3081    42        NA
#> 28 Costa Rica              2731    42        NA
#> 29 Mongolia                2543    13        NA
#> 30 Spain                   2450    82        NA
#> 31 Pakistan                2333    47        NA
#> 32 South Africa            2197   160        NA
#> 33 Bulgaria                2192    58        NA
#> 34 Singapore               2095     5        NA
#> 35 Sweden                  1986    15        NA
#> 36 West Bank and Gaza      1977    17        NA
#> 37 Jordan                  1945    17        NA
#> 38 Belarus                 1917    12        NA
#> 39 Morocco                 1848    51        NA
#> 40 Argentina               1837    61        NA
#> # … with 155 more rows
```
…
