The 2019 Novel Coronavirus COVID-19 (2019-nCoV) Dataset • coronavirus
…
Summary of new cases during the past 24 hours by country and type (as of 2020-03-12):

library(tidyr)

coronavirus %>% 
  filter(date == max(date)) %>%
  select(country = Country.Region, type, cases) %>%
  group_by(country, type) %>%
  summarise(total_cases = sum(cases)) %>%
  pivot_wider(names_from = type,
              values_from = total_cases) %>%
  arrange(-confirmed)
#> # A tibble: 116 x 4
#> # Groups:   country [116]
#>    country                confirmed death recovered
#>    <chr>                      <int> <int>     <int>
#>  1 Iran                        1075    75         0
#>  2 US                           382     4         4
#>  3 Denmark                      173     0         0
#>  4 Germany                      170     0         0
#>  5 Korea, South                 114     6        45
#>  6 Norway                       104     0         0
#>  7 Sweden                        99     0         0
#>  8 Austria                       56     1         0
#>  9 Slovenia                      32     0         0
#> 10 Saudi Arabia                  24     0         0
#> 11 Israel                        22     0         0
#> 12 Iceland                       18     0         0
#> 13 Poland                        18     1         0
#> 14 Brazil                        14     0         0
#> 15 Luxembourg                    12     0         0
#> 16 Albania                       11     0         0
#> 17 China                         11    11      1257
#> 18 India                         11     0         0
#> 19 Thailand                      11     0         0
#> 20 United Arab Emirates          11     0         0
#> 21 Canada                         9     0         0
#> 22 Costa Rica                     9     0         0
#> 23 Kuwait                         8     0         3
#> 24 Russia                         8     0         0
#> 25 Egypt                          7     0         0
#> 26 San Marino                     7     1         0
#> 27 Serbia                         7     0         0
#> 28 Slovakia                       6     0         0
#> 29 Algeria                        4     1         8
#> 30 Bosnia and Herzegovina         4     0         0
#> 31 Mexico                         4     0         0
#> 32 Peru                           4     0         0
#> 33 Romania                        4     0         0
#> 34 South Africa                   4     0         0
#> 35 Armenia                        3     0         0
#> 36 Belarus                        3     0         0
#> 37 Cuba                           3     0         0
#> 38 Czechia                        3     0         0
#> 39 Panama                         3     0         0
#> 40 Philippines                    3     1         0
#> # … with 76 more rows
…
