Loading Data with Julia • coronavirus
…
Note: similarly, you can load the vaccine data by using the following end point: https://raw.githubusercontent.com/RamiKrispin/coronavirus/master/csv/covid19_vaccine.csv

Next, we will store the csv file as a DataFrame object:

df = DataFrame(file)

df

<Julia object of type DataFrame>
526080×15 DataFrame
    Row │ date        province   country   lat       long       type       cases  uid     iso2      iso3      code3   combined_key     population  continent_name  continent_code
        │ Date…       String63?  String63  Float64?  Float64?   String15   Int64  Int64?  String3?  String3?  Int64?  String63?        Float64?    String15?       String3?
────────┼─────────────────────────────────────────────────────────────────────────────────────────────────────────────────────────────────────────────────────────────────────────
      1 │ 2020-01-22  Alberta    Canada     53.9333  -116.576   confirmed      0   12401  CA        CAN          124  Alberta, Canada   4.41315e6  North America   missing
      2 │ 2020-01-23  Alberta    Canada     53.9333  -116.576   confirmed      0   12401  CA        CAN          124  Alberta, Canada   4.41315e6  North America   missing
      3 │ 2020-01-24  Alberta    Canada     53.9333  -116.576   confirmed      0   12401  CA        CAN          124  Alberta, Canada   4.41315e6  North America   missing
      4 │ 2020-01-25  Alberta    Canada     53.9333  -116.576   confirmed      0   12401  CA        CAN          124  Alberta, Canada   4.41315e6  North America   missing
      5 │ 2020-01-26  Alberta    Canada     53.9333  -116.576   confirmed      0   12401  CA        CAN          124  Alberta, Canada   4.41315e6  North America   missing
      6 │ 2020-01-27  Alberta    Canada     53.9333  -116.576   confirmed      0   12401  CA        CAN          124  Alberta, Canada   4.41315e6  North America   missing
      7 │ 2020-01-28  Alberta    Canada     53.9333  -116.576   confirmed      0   12401  CA        CAN          124  Alberta, Canada   4.41315e6  North America   missing
      8 │ 2020-01-29  Alberta    Canada     53.9333  -116.576   confirmed      0   12401  CA        CAN          124  Alberta, Canada   4.41315e6  North America   missing
   ⋮    │     ⋮           ⋮         ⋮         ⋮          ⋮          ⋮        ⋮      ⋮        ⋮         ⋮        ⋮            ⋮             ⋮             ⋮               ⋮
 526074 │ 2021-10-16  missing    Zimbabwe  -19.0154    29.1549  recovery       0     716  ZW        ZWE          716  Zimbabwe          1.48629e7  Africa          AF
 526075 │ 2021-10-17  missing    Zimbabwe  -19.0154    29.1549  recovery       0     716  ZW        ZWE          716  Zimbabwe          1.48629e7  Africa          AF
 526076 │ 2021-10-18  missing    Zimbabwe  -19.0154    29.1549  recovery       0     716  ZW        ZWE          716  Zimbabwe          1.48629e7  Africa          AF
 526077 │ 2021-10-19  missing    Zimbabwe  -19.0154    29.1549  recovery       0     716  ZW        ZWE          716  Zimbabwe          1.48629e7  Africa          AF
 526078 │ 2021-10-20  missing    Zimbabwe  -19.0154    29.1549  recovery       0     716  ZW        ZWE          716  Zimbabwe          1.48629e7  Africa          AF
 526079 │ 2021-10-21  missing    Zimbabwe  -19.0154    29.1549  recovery       0     716  ZW        ZWE          716  Zimbabwe          1.48629e7  Africa          AF
 526080 │ 2021-10-22  missing    Zimbabwe  -19.0154    29.1549  recovery       0     716  ZW        ZWE          716  Zimbabwe          1.48629e7  Africa          AF
                                                                                                                                                               526065 rows omitted
…
continent_code - Continent code

Data summary

Once we load the data, it would be interesting to explore the data using summary tables. In the following examples, we will create a summary of cases (confirmed and death) by country. We will use the chain function to filter the case type, group by country, aggregated by cases, and sort by the number of cases. We will start with a confirmed cases summary:

@chain df begin
    filter(:type => ==("confirmed"),_)
    groupby([:combined_key, :type])
    combine([:cases] .=> sum)
    sort!([:cases_sum], rev = true)
end

<Julia object of type DataFrame>
279×3 DataFrame
 Row │ combined_key                       type       cases_sum
     │ String63?                          String15   Int64
─────┼─────────────────────────────────────────────────────────
   1 │ US                                 confirmed   45400466
   2 │ India                              confirmed   34159562
   3 │ Brazil                             confirmed   21711843
   4 │ United Kingdom                     confirmed    8689949
   5 │ Russia                             confirmed    8041581
   6 │ Turkey                             confirmed    7800766
   7 │ France                             confirmed    6937872
   8 │ Iran                               confirmed    5844589
  ⋮  │                 ⋮                      ⋮          ⋮
 273 │ Samoa                              confirmed          3
 274 │ Kiribati                           confirmed          2
 275 │ Cook Islands, New Zealand          confirmed          1
 276 │ Tibet, China                       confirmed          1
 277 │ Micronesia                         confirmed          1
 278 │ Diamond Princess, Canada           confirmed          0
 279 │ Unknown, China                     confirmed          0
                                               264 rows omitted

Similarly, we can summarize the total number of death cases by country:

@chain df begin
    filter(:type => ==("death"),_)
    groupby([:combined_key, :type])
    combine([:cases] .=> sum)
    sort!([:cases_sum], rev = true)
end

<Julia object of type DataFrame>
279×3 DataFrame
 Row │ combined_key          type      cases_sum
     │ String63?             String15  Int64
─────┼───────────────────────────────────────────
   1 │ US                    death        735373
   2 │ Brazil                death        605139
   3 │ India                 death        453708
   4 │ Mexico                death        285953
   5 │ Russia                death        224369
   6 │ Peru                  death        200003
   7 │ Indonesia             death        143153
   8 │ United Kingdom        death        139326
  ⋮  │          ⋮               ⋮          ⋮
 273 │ Kiribati              death             0
 274 │ Marshall Islands      death             0
 275 │ Micronesia            death             0
 276 │ Palau                 death             0
 277 │ Samoa                 death             0
 278 │ Solomon Islands       death             0
 279 │ Summer Olympics 2020  death             0
                                 264 rows omitted

Visualize the data

Last but not least, we will plot the data using PlotlyJS, Plotly version for Julia. In the following example, we will generate a side-by-side plot of Brazil’s total daily confirmed and death cases. We will start by filtering the cases in Brazil by case type - confirmed and death:

df_brazil_confirmed = filter(row -> row.country == "Brazil" && row.type == "confirmed", df)
df_brazil_death = filter(row -> row.country == "Brazil" && row.type == "death", df)

<Julia object of type DataFrame>
640×15 DataFrame
 Row │ date        province   country   lat       long      type      cases  uid     iso2      iso3      code3   combined_key  population  continent_name  continent_code
     │ Date…       String63?  String63  Float64?  Float64?  String15  Int64  Int64?  String3?  String3?  Int64?  String63?     Float64?    String15?       String3?
─────┼────────────────────────────────────────────────────────────────────────────────────────────────────────────────────────────────────────────────────────────────────
   1 │ 2020-01-22  missing    Brazil     -14.235  -51.9253  death         0      76  BR        BRA           76  Brazil         2.12559e8  South America   SA
   2 │ 2020-01-23  missing    Brazil     -14.235  -51.9253  death         0      76  BR        BRA           76  Brazil         2.12559e8  South America   SA
   3 │ 2020-01-24  missing    Brazil     -14.235  -51.9253  death         0      76  BR        BRA           76  Brazil         2.12559e8  South America   SA
   4 │ 2020-01-25  missing    Brazil     -14.235  -51.9253  death         0      76  BR        BRA           76  Brazil         2.12559e8  South America   SA
   5 │ 2020-01-26  missing    Brazil     -14.235  -51.9253  death         0      76  BR        BRA           76  Brazil         2.12559e8  South America   SA
   6 │ 2020-01-27  missing    Brazil     -14.235  -51.9253  death         0      76  BR        BRA           76  Brazil         2.12559e8  South America   SA
   7 │ 2020-01-28  missing    Brazil     -14.235  -51.9253  death         0      76  BR        BRA           76  Brazil         2.12559e8  South America   SA
   8 │ 2020-01-29  missing    Brazil     -14.235  -51.9253  death         0      76  BR        BRA           76  Brazil         2.12559e8  South America   SA
  ⋮  │     ⋮           ⋮         ⋮         ⋮         ⋮         ⋮        ⋮      ⋮        ⋮         ⋮        ⋮          ⋮            ⋮             ⋮               ⋮
 634 │ 2021-10-16  missing    Brazil     -14.235  -51.9253  death       483      76  BR        BRA           76  Brazil         2.12559e8  South America   SA
 635 │ 2021-10-17  missing    Brazil     -14.235  -51.9253  death       130      76  BR        BRA           76  Brazil         2.12559e8  South America   SA
 636 │ 2021-10-18  missing    Brazil     -14.235  -51.9253  death       183      76  BR        BRA           76  Brazil         2.12559e8  South America   SA
 637 │ 2021-10-19  missing    Brazil     -14.235  -51.9253  death       390      76  BR        BRA           76  Brazil         2.12559e8  South America   SA
 638 │ 2021-10-20  missing    Brazil     -14.235  -51.9253  death       373      76  BR        BRA           76  Brazil         2.12559e8  South America   SA
 639 │ 2021-10-21  missing    Brazil     -14.235  -51.9253  death       451      76  BR        BRA           76  Brazil         2.12559e8  South America   SA
 640 │ 2021-10-22  missing    Brazil     -14.235  -51.9253  death       460      76  BR        BRA           76  Brazil         2.12559e8  South America   SA
                                                                                                                                                          625 rows omitted
…
