The 2019 Novel Coronavirus COVID-19 (2019-nCoV) Dataset — coronavirus • coronavirus
…
# Get the number of recovered cases in Mainland China by province
 coronavirus %>%
    filter(type == "recovered", Country.Region == "Mainland China") %>%
    group_by(Province.State) %>%
    summarise(total = sum(cases)) %>%
    arrange(-total)
#> # A tibble: 31 x 2
#>    Province.State total
#>    <chr>          <int>
#>  1 Hubei          45235
#>  2 Guangdong       1256
#>  3 Henan           1247
#>  4 Zhejiang        1161
#>  5 Anhui            984
#>  6 Hunan            968
#>  7 Jiangxi          919
#>  8 Shandong         642
#>  9 Jiangsu          612
#> 10 Chongqing        527
#> # … with 21 more rows
…
