The 2019 Novel Coronavirus COVID-19 (2019-nCoV) US Outbreak Dataset — covid_us_states • coronavirus
…
    Details

    The dataset contains the daily summary of the Coronavirus confirmed cases in the US by state

    Examples

data(covid_us_states)

library(dplyr)

# Get summary by sub region of totalcases

covid_us_states
#> # A tibble: 701 x 9
#>    date       state positive negative pending death total date_checked       
#>    <date>     <chr>    <int>    <int>   <int> <int> <int> <dttm>             
#>  1 2020-03-18 AK           6      406      NA    NA   412 2020-03-18 20:00:00
#>  2 2020-03-18 AL          46       28      NA     0    74 2020-03-18 20:00:00
#>  3 2020-03-18 AR          33      236      50    NA   319 2020-03-18 20:00:00
#>  4 2020-03-18 AZ          28      148     102     0   278 2020-03-18 20:00:00
#>  5 2020-03-18 CA         611     7981      NA    13  8592 2020-03-18 20:00:00
#>  6 2020-03-18 CO         183     1617      NA     2  1800 2020-03-18 20:00:00
#>  7 2020-03-18 CT          68      125      NA    NA   193 2020-03-18 20:00:00
#>  8 2020-03-18 DC          31      138       1    NA   170 2020-03-18 20:00:00
#>  9 2020-03-18 DE          25       36      NA    NA    61 2020-03-18 20:00:00
#> 10 2020-03-18 FL         314     1225     954     7  2493 2020-03-18 20:00:00
#> # … with 691 more rows, and 1 more variable: request_datetime <dttm>
…
